Lesson 7: Capstone Project
…
aq <- airquality |>
  tibble::as_tibble() |>
  mutate(
    date = as.Date(paste("1973", Month, Day, sep = "-")),
    Month = factor(Month,
      levels = 5:9,
      labels = c("May", "Jun", "Jul", "Aug", "Sep")
    )
  )

aq

#> # A tibble: 153 × 7
#>    Ozone Solar.R  Wind  Temp Month   Day date      
#>    <int>   <int> <dbl> <int> <fct> <int> <date>    
#>  1    41     190   7.4    67 May       1 1973-05-01
#>  2    36     118   8      72 May       2 1973-05-02
#>  3    12     149  12.6    74 May       3 1973-05-03
#>  4    18     313  11.5    62 May       4 1973-05-04
#>  5    NA      NA  14.3    56 May       5 1973-05-05
#>  6    28      NA  14.9    66 May       6 1973-05-06
#>  7    23     299   8.6    65 May       7 1973-05-07
#>  8    19      99  13.8    59 May       8 1973-05-08
#>  9     8      19  20.1    61 May       9 1973-05-09
#> 10    NA     194   8.6    69 May      10 1973-05-10
#> # ℹ 143 more rows
…
