Lesson 3: Data Manipulation in R
…
For Excel files use readxl::read_excel(). For databases
use DBI plus a driver package. For R’s native binary format
use readRDS() and saveRDS().

For this lesson we’ll use the built-in mtcars. Let’s
convert it to a tibble and add a model column from the row
names:

cars <- mtcars |>
  tibble::rownames_to_column("model") |>
  tibble::as_tibble()
cars

#> # A tibble: 32 × 12
#>    model         mpg   cyl  disp    hp  drat    wt  qsec    vs    am  gear  carb
#>    <chr>       <dbl> <dbl> <dbl> <dbl> <dbl> <dbl> <dbl> <dbl> <dbl> <dbl> <dbl>
#>  1 Mazda RX4    21       6  160    110  3.9   2.62  16.5     0     1     4     4
#>  2 Mazda RX4 …  21       6  160    110  3.9   2.88  17.0     0     1     4     4
#>  3 Datsun 710   22.8     4  108     93  3.85  2.32  18.6     1     1     4     1
#>  4 Hornet 4 D…  21.4     6  258    110  3.08  3.22  19.4     1     0     3     1
#>  5 Hornet Spo…  18.7     8  360    175  3.15  3.44  17.0     0     0     3     2
#>  6 Valiant      18.1     6  225    105  2.76  3.46  20.2     1     0     3     1
#>  7 Duster 360   14.3     8  360    245  3.21  3.57  15.8     0     0     3     4
#>  8 Merc 240D    24.4     4  147.    62  3.69  3.19  20       1     0     4     2
#>  9 Merc 230     22.8     4  141.    95  3.92  3.15  22.9     1     0     4     2
#> 10 Merc 280     19.2     6  168.   123  3.92  3.44  18.3     1     0     4     4
#> # ℹ 22 more rows
…
Multiple conditions separated by commas are combined with
& (AND).

select() — pick columns

cars |> select(model, mpg, cyl)

#> # A tibble: 32 × 3
#>    model               mpg   cyl
#>    <chr>             <dbl> <dbl>
#>  1 Mazda RX4          21       6
#>  2 Mazda RX4 Wag      21       6
#>  3 Datsun 710         22.8     4
#>  4 Hornet 4 Drive     21.4     6
#>  5 Hornet Sportabout  18.7     8
#>  6 Valiant            18.1     6
#>  7 Duster 360         14.3     8
#>  8 Merc 240D          24.4     4
#>  9 Merc 230           22.8     4
#> 10 Merc 280           19.2     6
#> # ℹ 22 more rows

cars |> select(-disp, -hp)              # drop columns

#> # A tibble: 32 × 10
#>    model               mpg   cyl  drat    wt  qsec    vs    am  gear  carb
#>    <chr>             <dbl> <dbl> <dbl> <dbl> <dbl> <dbl> <dbl> <dbl> <dbl>
#>  1 Mazda RX4          21       6  3.9   2.62  16.5     0     1     4     4
#>  2 Mazda RX4 Wag      21       6  3.9   2.88  17.0     0     1     4     4
#>  3 Datsun 710         22.8     4  3.85  2.32  18.6     1     1     4     1
#>  4 Hornet 4 Drive     21.4     6  3.08  3.22  19.4     1     0     3     1
#>  5 Hornet Sportabout  18.7     8  3.15  3.44  17.0     0     0     3     2
#>  6 Valiant            18.1     6  2.76  3.46  20.2     1     0     3     1
#>  7 Duster 360         14.3     8  3.21  3.57  15.8     0     0     3     4
#>  8 Merc 240D          24.4     4  3.69  3.19  20       1     0     4     2
#>  9 Merc 230           22.8     4  3.92  3.15  22.9     1     0     4     2
#> 10 Merc 280           19.2     6  3.92  3.44  18.3     1     0     4     4
#> # ℹ 22 more rows

cars |> select(model, mpg:hp)           # range

#> # A tibble: 32 × 5
#>    model               mpg   cyl  disp    hp
#>    <chr>             <dbl> <dbl> <dbl> <dbl>
#>  1 Mazda RX4          21       6  160    110
#>  2 Mazda RX4 Wag      21       6  160    110
#>  3 Datsun 710         22.8     4  108     93
#>  4 Hornet 4 Drive     21.4     6  258    110
#>  5 Hornet Sportabout  18.7     8  360    175
#>  6 Valiant            18.1     6  225    105
#>  7 Duster 360         14.3     8  360    245
#>  8 Merc 240D          24.4     4  147.    62
#>  9 Merc 230           22.8     4  141.    95
#> 10 Merc 280           19.2     6  168.   123
#> # ℹ 22 more rows

cars |> select(starts_with("d"))        # by name pattern

#> # A tibble: 32 × 2
#>     disp  drat
#>    <dbl> <dbl>
#>  1  160   3.9 
#>  2  160   3.9 
#>  3  108   3.85
#>  4  258   3.08
#>  5  360   3.15
#>  6  225   2.76
#>  7  360   3.21
#>  8  147.  3.69
#>  9  141.  3.92
#> 10  168.  3.92
#> # ℹ 22 more rows

mutate() — create or change columns

cars |>
  mutate(
    kpl = mpg * 0.425,                  # km per liter
    weight_lbs = wt * 1000,
    is_efficient = mpg > 25
  ) |>
  select(model, mpg, kpl, weight_lbs, is_efficient)

#> # A tibble: 32 × 5
#>    model               mpg   kpl weight_lbs is_efficient
#>    <chr>             <dbl> <dbl>      <dbl> <lgl>       
#>  1 Mazda RX4          21    8.92       2620 FALSE       
#>  2 Mazda RX4 Wag      21    8.92       2875 FALSE       
#>  3 Datsun 710         22.8  9.69       2320 FALSE       
#>  4 Hornet 4 Drive     21.4  9.09       3215 FALSE       
#>  5 Hornet Sportabout  18.7  7.95       3440 FALSE       
#>  6 Valiant            18.1  7.69       3460 FALSE       
#>  7 Duster 360         14.3  6.08       3570 FALSE       
#>  8 Merc 240D          24.4 10.4        3190 FALSE       
#>  9 Merc 230           22.8  9.69       3150 FALSE       
#> 10 Merc 280           19.2  8.16       3440 FALSE       
#> # ℹ 22 more rows

mutate() can use any R function — including ones you
write yourself.

arrange() — sort rows

cars |> arrange(mpg)              # ascending

#> # A tibble: 32 × 12
#>    model         mpg   cyl  disp    hp  drat    wt  qsec    vs    am  gear  carb
#>    <chr>       <dbl> <dbl> <dbl> <dbl> <dbl> <dbl> <dbl> <dbl> <dbl> <dbl> <dbl>
#>  1 Cadillac F…  10.4     8  472    205  2.93  5.25  18.0     0     0     3     4
#>  2 Lincoln Co…  10.4     8  460    215  3     5.42  17.8     0     0     3     4
#>  3 Camaro Z28   13.3     8  350    245  3.73  3.84  15.4     0     0     3     4
#>  4 Duster 360   14.3     8  360    245  3.21  3.57  15.8     0     0     3     4
#>  5 Chrysler I…  14.7     8  440    230  3.23  5.34  17.4     0     0     3     4
#>  6 Maserati B…  15       8  301    335  3.54  3.57  14.6     0     1     5     8
#>  7 Merc 450SLC  15.2     8  276.   180  3.07  3.78  18       0     0     3     3
#>  8 AMC Javelin  15.2     8  304    150  3.15  3.44  17.3     0     0     3     2
#>  9 Dodge Chal…  15.5     8  318    150  2.76  3.52  16.9     0     0     3     2
#> 10 Ford Pante…  15.8     8  351    264  4.22  3.17  14.5     0     1     5     4
#> # ℹ 22 more rows

cars |> arrange(desc(mpg))        # descending

#> # A tibble: 32 × 12
#>    model         mpg   cyl  disp    hp  drat    wt  qsec    vs    am  gear  carb
#>    <chr>       <dbl> <dbl> <dbl> <dbl> <dbl> <dbl> <dbl> <dbl> <dbl> <dbl> <dbl>
#>  1 Toyota Cor…  33.9     4  71.1    65  4.22  1.84  19.9     1     1     4     1
#>  2 Fiat 128     32.4     4  78.7    66  4.08  2.2   19.5     1     1     4     1
#>  3 Honda Civic  30.4     4  75.7    52  4.93  1.62  18.5     1     1     4     2
#>  4 Lotus Euro…  30.4     4  95.1   113  3.77  1.51  16.9     1     1     5     2
#>  5 Fiat X1-9    27.3     4  79      66  4.08  1.94  18.9     1     1     4     1
#>  6 Porsche 91…  26       4 120.     91  4.43  2.14  16.7     0     1     5     2
#>  7 Merc 240D    24.4     4 147.     62  3.69  3.19  20       1     0     4     2
#>  8 Datsun 710   22.8     4 108      93  3.85  2.32  18.6     1     1     4     1
#>  9 Merc 230     22.8     4 141.     95  3.92  3.15  22.9     1     0     4     2
#> 10 Toyota Cor…  21.5     4 120.     97  3.7   2.46  20.0     1     0     3     1
#> # ℹ 22 more rows

cars |> arrange(cyl, desc(mpg))   # multi-key

#> # A tibble: 32 × 12
#>    model         mpg   cyl  disp    hp  drat    wt  qsec    vs    am  gear  carb
#>    <chr>       <dbl> <dbl> <dbl> <dbl> <dbl> <dbl> <dbl> <dbl> <dbl> <dbl> <dbl>
#>  1 Toyota Cor…  33.9     4  71.1    65  4.22  1.84  19.9     1     1     4     1
#>  2 Fiat 128     32.4     4  78.7    66  4.08  2.2   19.5     1     1     4     1
#>  3 Honda Civic  30.4     4  75.7    52  4.93  1.62  18.5     1     1     4     2
#>  4 Lotus Euro…  30.4     4  95.1   113  3.77  1.51  16.9     1     1     5     2
#>  5 Fiat X1-9    27.3     4  79      66  4.08  1.94  18.9     1     1     4     1
#>  6 Porsche 91…  26       4 120.     91  4.43  2.14  16.7     0     1     5     2
#>  7 Merc 240D    24.4     4 147.     62  3.69  3.19  20       1     0     4     2
#>  8 Datsun 710   22.8     4 108      93  3.85  2.32  18.6     1     1     4     1
#>  9 Merc 230     22.8     4 141.     95  3.92  3.15  22.9     1     0     4     2
#> 10 Toyota Cor…  21.5     4 120.     97  3.7   2.46  20.0     1     0     3     1
#> # ℹ 22 more rows
…
